%YAML 1.1
%TAG !u! tag:unity3d.com,2011:
--- !u!114 &11400000
MonoBehaviour:
  m_ObjectHideFlags: 0
  m_CorrespondingSourceObject: {fileID: 0}
  m_PrefabInstance: {fileID: 0}
  m_PrefabAsset: {fileID: 0}
  m_GameObject: {fileID: 0}
  m_Enabled: 1
  m_EditorHideFlags: 0
  m_Script: {fileID: 11500000, guid: 38c35fcb853cfb747b0557a8494d9bf2, type: 3}
  m_Name: Ship0Base
  m_EditorClassIdentifier: 
  Type: 0
  Values:
  - Type: 0
    LevelUpData: {fileID: 11400000, guid: 86fad1570931042428454d6c690c3cae, type: 2}
  - Type: 1
    LevelUpData: {fileID: 11400000, guid: 0bc1092344b77894987420c01f28387d, type: 2}
  - Type: 2
    LevelUpData: {fileID: 11400000, guid: f2ee92d3eb6bb8441a20ba213c7881fe, type: 2}
  Prefab: {fileID: 0}
