%YAML 1.1
%TAG !u! tag:unity3d.com,2011:
--- !u!21 &2100000
Material:
  serializedVersion: 6
  m_ObjectHideFlags: 0
  m_CorrespondingSourceObject: {fileID: 0}
  m_PrefabInstance: {fileID: 0}
  m_PrefabAsset: {fileID: 0}
  m_Name: Water 1
  m_Shader: {fileID: -6465566751694194690, guid: 702bcf90a57522f4f976f2fa16f104e3,
    type: 3}
  m_ShaderKeywords: 
  m_LightmapFlags: 4
  m_EnableInstancingVariants: 0
  m_DoubleSidedGI: 0
  m_CustomRenderQueue: -1
  stringTagMap: {}
  disabledShaderPasses: []
  m_SavedProperties:
    serializedVersion: 3
    m_TexEnvs: []
    m_Floats:
    - Vector1_2F475F5D: 0.1
    - Vector1_35858063: 2
    - Vector1_542728BC: 40
    - Vector1_8A5913BF: 3
    - Vector1_D05099DC: 0.43
    m_Colors:
    - Color_1ECE3CBB: {r: 0, g: 0.58332276, b: 1, a: 0}
    - Color_7B367C19: {r: 0, g: 0.14901961, b: 0.41568628, a: 0}
