%YAML 1.1
%TAG !u! tag:unity3d.com,2011:
--- !u!114 &11400000
MonoBehaviour:
  m_ObjectHideFlags: 0
  m_CorrespondingSourceObject: {fileID: 0}
  m_PrefabInstance: {fileID: 0}
  m_PrefabAsset: {fileID: 0}
  m_GameObject: {fileID: 0}
  m_Enabled: 1
  m_EditorHideFlags: 0
  m_Script: {fileID: 11500000, guid: b3e127018f0441a8bd455bce5f810a7f, type: 3}
  m_Name: VIctim1
  m_EditorClassIdentifier: 
  Score: 0
  SoftCurrencyReward: 0
  Prefab: {fileID: 0}
