%YAML 1.1
%TAG !u! tag:unity3d.com,2011:
--- !u!114 &11400000
MonoBehaviour:
  m_ObjectHideFlags: 0
  m_CorrespondingSourceObject: {fileID: 0}
  m_PrefabInstance: {fileID: 0}
  m_PrefabAsset: {fileID: 0}
  m_GameObject: {fileID: 0}
  m_Enabled: 1
  m_EditorHideFlags: 0
  m_Script: {fileID: 11500000, guid: bc3ff7f832287e242b7d4ed2b3288cb8, type: 3}
  m_Name: JavelinThrowPlayerSettings
  m_EditorClassIdentifier: 
  PrimaryStats:
    Power: 0
    Speed: 0
    Tehnique: 0
  SecondaryStats:
    HammerThrowBoost: 0
    HighJumpBoost: 0
    HurdlingBoost: 0
    JavelinThrowBoost: 0
    LongJumpBoost: 0
    RunningBoost: 0
